[
    {
        "url": "/tool/exportar-dias-festivos",
        "image": "festivos_excel",
        "title": "Consultar y exportar días festivos",
        "description": "consultar dias festivos y exportar días festivos en excel.",
        "component": "ExportarFestivos",
        "keywords": "días festivos, consultar días festivos, exportar días festivos, hoy es festivo",
        "active": true
    },
    {
        "url": "/tool/contador-de-caracteres",
        "image": "contador_caracteres",
        "title": "Contador de caracteres y palabras",
        "description": "Contador de caracteres y contador de palabras",
        "component": "ContadorCaracteres",
        "keywords": "contador caracteres online,contador caracteres,contador palabras",
        "active": true
    },
    {
        "url": "/tool/pixel-to-rem-convertidor-online",
        "image": "pixel_to_rem",
        "title": "Pixel to rem convertidor",
        "description": "Convertidor de pixeles a rem online",
        "component": "PixelToRem",
        "keywords": "convertidor pixel a rem,px to rem,rem to px, rem to pixel",
        "active": true
    }
]